[
  {
    "email": "r@g.cr@gom",
    "password": "12"
  },
  {
    "email": "r@g.com",
    "password": "12"
  },
  {
    "email": "1@2.com",
    "password": "12"
  },
  {
    "email": "1@2.com",
    "password": "12"
  },
  null,
  {
    "email": "1@2.com",
    "password": "12"
  },
  null,
  {
    "email": "1@2.com",
    "password": "12"
  },
  null,
  {
    "email": "1@2.com",
    "password": "12"
  },
  null,
  {
    "email": "1@2.com",
    "password": "23"
  },
  null,
  {
    "email": "1@2.com",
    "password": "12"
  },
  null,
  {
    "email": "1@2.com",
    "password": "12"
  },
  null,
  {
    "email": "1@2.com",
    "password": "12"
  },
  null,
  {
    "email": "1@2.com",
    "password": "12"
  },
  null,
  {
    "email": "1@2.com",
    "password": "12"
  },
  null,
  {
    "email": "1@2.com",
    "password": "12"
  },
  null,
  {
    "email": "1@2.com",
    "password": "12"
  },
  null,
  {
    "email": "1@2.com",
    "password": "12"
  },
  null,
  {
    "email": "1@2.com",
    "password": "12"
  },
  null,
  {
    "email": "1@2.com",
    "password": "12"
  },
  null,
  {
    "email": "1@2.com",
    "password": "12"
  },
  null,
  {
    "email": "1@2.com",
    "password": "12"
  },
  null,
  {
    "email": "1@2.com",
    "password": "12"
  },
  null,
  {
    "email": "1@2.com",
    "password": "12"
  },
  null,
  {
    "email": "rizky@gmail.com",
    "password": "123"
  },
  null,
  {
    "email": "rizky@gmail.com",
    "password": "12"
  },
  null
]